<?xml version="1.0" encoding="utf-8"?>
<!-- Generator: Adobe Illustrator 22.1.0, SVG Export Plug-In . SVG Version: 6.00 Build 0)  -->
<svg version="1.1" id="Layer_1" xmlns="http://www.w3.org/2000/svg" xmlns:xlink="http://www.w3.org/1999/xlink" x="0px" y="0px"
	 viewBox="0 0 470 470" style="enable-background:new 0 0 470 470;" xml:space="preserve" width="54px" fill="#4b39ac">
<style type="text/css">
	.st0{clip-path:url(#SVGID_2_);}
	.st1{clip-path:url(#SVGID_4_);}
	.st2{clip-path:url(#SVGID_6_);}
	.st3{clip-path:url(#SVGID_8_);}
	.st4{clip-path:url(#SVGID_10_);}
	.st5{clip-path:url(#SVGID_12_);}
</style>
<g>
	<defs>
		<path id="SVGID_1_" d="M195,455c-9.6,0-17.5-7.9-17.5-17.5S185.4,420,195,420s17.5,7.9,17.5,17.5S204.6,455,195,455z M202.5,405.9
			V285.7c0-4.1-3.4-7.5-7.5-7.5h-50c-4.1,0-7.5,3.4-7.5,7.5s3.4,7.5,7.5,7.5h42.5v112.7c-14.3,3.4-25,16.3-25,31.6
			c0,17.9,14.6,32.5,32.5,32.5s32.5-14.6,32.5-32.5C227.5,422.2,216.8,409.3,202.5,405.9z"/>
	</defs>
	<clipPath id="SVGID_2_">
		<use xlink:href="#SVGID_1_"  style="overflow:visible;"/>
	</clipPath>
	<rect x="132.5" y="273.2" class="st0" width="100" height="201.8"/>
</g>
<g>
	<defs>
		<path id="SVGID_3_" d="M275,455c-9.6,0-17.5-7.9-17.5-17.5S265.4,420,275,420s17.5,7.9,17.5,17.5S284.6,455,275,455z M282.5,405.9
			V285.7c0-4.1-3.4-7.5-7.5-7.5h-50c-4.1,0-7.5,3.4-7.5,7.5s3.4,7.5,7.5,7.5h42.5v112.7c-14.3,3.4-25,16.3-25,31.6
			c0,17.9,14.6,32.5,32.5,32.5s32.5-14.6,32.5-32.5C307.5,422.2,296.8,409.3,282.5,405.9z"/>
	</defs>
	<clipPath id="SVGID_4_">
		<use xlink:href="#SVGID_3_"  style="overflow:visible;"/>
	</clipPath>
	<rect x="212.5" y="273.2" class="st1" width="100" height="201.8"/>
</g>
<g>
	<defs>
		<path id="SVGID_5_" d="M410,405c-9.6,0-17.5-7.9-17.5-17.5S400.4,370,410,370s17.5,7.9,17.5,17.5S419.6,405,410,405z M410,355
			c-15.3,0-28.2,10.7-31.6,25h-15.9v-94.3c0-4.1-3.4-7.5-7.5-7.5h-50c-4.1,0-7.5,3.4-7.5,7.5s3.4,7.5,7.5,7.5h42.5v94.3
			c0,4.1,3.4,7.5,7.5,7.5h23.4c3.4,14.3,16.3,25,31.6,25c17.9,0,32.5-14.6,32.5-32.5S427.9,355,410,355z"/>
	</defs>
	<clipPath id="SVGID_6_">
		<use xlink:href="#SVGID_5_"  style="overflow:visible;"/>
	</clipPath>
	<rect x="292.5" y="273.2" class="st2" width="155" height="151.8"/>
</g>
<g>
	<defs>
		<path id="SVGID_7_" d="M60,405c-9.6,0-17.5-7.9-17.5-17.5S50.4,370,60,370s17.5,7.9,17.5,17.5S69.6,405,60,405z M452.1,161.6
			C442,149,428.3,139.7,413,135c-1.7-35.5-16.5-68.6-41.8-93.8C344.4,14.6,308.9,0,271.2,0c-49.5,0-95.3,25.8-121.1,67.8
			c-6.3-2-12.8-3-19.4-3c-30.6,0-57,21.6-63.3,51.1C28,126.1,0,162,0,203.1c0,49.7,40.4,90.1,90.1,90.1h17.4V380H91.6
			c-3.4-14.3-16.3-25-31.6-25c-17.9,0-32.5,14.6-32.5,32.5S42.1,420,60,420c15.3,0,28.2-10.7,31.6-25H115c4.1,0,7.5-3.4,7.5-7.5
			V285.7c0-4.1-3.4-7.5-7.5-7.5H90.1c-41.4,0-75.1-33.7-75.1-75.1c0-35.7,25.4-66.7,60.4-73.6c3.2-0.6,5.6-3.2,6-6.4
			c3.2-24.7,24.5-43.3,49.4-43.3c6.9,0,13.5,1.4,19.8,4.1c3.5,1.5,7.7,0.1,9.5-3.3C182.4,40.2,225,15,271.2,15
			c69.4,0,126.3,56.4,127,125.8c0,3.5,2.4,6.5,5.8,7.2c30,6.9,51,33.4,51,64.2c0,36.3-29.6,65.9-65.9,65.9H385
			c-4.1,0-7.5,3.4-7.5,7.5s3.4,7.5,7.5,7.5h4.1c44.6,0,80.9-36.3,80.9-80.9C470,193.9,463.7,175.9,452.1,161.6z"/>
	</defs>
	<clipPath id="SVGID_8_">
		<use xlink:href="#SVGID_7_"  style="overflow:visible;"/>
	</clipPath>
	<rect x="-5" y="-5" class="st3" width="480" height="430"/>
</g>
<g>
	<defs>
		<path id="SVGID_9_" d="M365.7,148.6L365.7,148.6c4.2,0,7.5-3.4,7.5-7.6c-0.1-12.4-2.4-24.4-6.9-35.9c-1.5-3.9-5.9-5.8-9.7-4.3
			c-3.9,1.5-5.8,5.9-4.3,9.7c3.8,9.8,5.8,20.1,5.9,30.6C358.2,145.3,361.6,148.6,365.7,148.6z"/>
	</defs>
	<clipPath id="SVGID_10_">
		<use xlink:href="#SVGID_9_"  style="overflow:visible;"/>
	</clipPath>
	<rect x="346.8" y="95.3" class="st4" width="31.4" height="58.3"/>
</g>
<g>
	<defs>
		<path id="SVGID_11_" d="M338.3,86.8c1.5,1.8,3.6,2.7,5.8,2.7c1.7,0,3.4-0.6,4.8-1.7c3.2-2.6,3.6-7.4,1-10.6
			C330.3,53.6,301.7,40,271.2,40c-4.1,0-7.5,3.4-7.5,7.5s3.4,7.5,7.5,7.5C297.2,55,321.6,66.6,338.3,86.8z"/>
	</defs>
	<clipPath id="SVGID_12_">
		<use xlink:href="#SVGID_11_"  style="overflow:visible;"/>
	</clipPath>
	<rect x="258.7" y="35" class="st5" width="97.8" height="59.5"/>
</g>
</svg>
