<?xml version="1.0" encoding="utf-8"?>
<!-- Generator: Adobe Illustrator 22.1.0, SVG Export Plug-In . SVG Version: 6.00 Build 0)  -->
<svg version="1.1" id="Layer_1" xmlns="http://www.w3.org/2000/svg" xmlns:xlink="http://www.w3.org/1999/xlink" x="0px" y="0px"
	 viewBox="0 0 496 496" style="enable-background:new 0 0 496 496;" xml:space="preserve" width="54px" fill="#4b39ac">
<path d="M376,224h73.5c3.3,9.3,12.1,16,22.5,16c13.2,0,24-10.8,24-24s-10.8-24-24-24c-10.4,0-19.2,6.7-22.5,16H376v-16h24
	c2.1,0,4.2-0.8,5.7-2.3l29.7-29.7h14.2c3.3,9.3,12.1,16,22.5,16c13.2,0,24-10.8,24-24s-10.8-24-24-24c-10.4,0-19.2,6.7-22.5,16H432
	c-2.1,0-4.2,0.8-5.7,2.3L396.7,176H376v-8c0-2.1-0.8-4.2-2.3-5.7l-40-40c-1.5-1.5-3.5-2.3-5.7-2.3h-40v-10.5l58.8-22.1
	c3.1-1.2,5.2-4.2,5.2-7.5V46.5c9.3-3.3,16-12.1,16-22.5c0-13.2-10.8-24-24-24s-24,10.8-24,24c0,10.4,6.7,19.2,16,22.5v27.9l-48,18
	V78.5c9.3-3.3,16-12.1,16-22.5c0-13.2-10.8-24-24-24s-24,10.8-24,24c0,10.4,6.7,19.2,16,22.5V120h-48V46.5c9.3-3.3,16-12.1,16-22.5
	c0-13.2-10.8-24-24-24s-24,10.8-24,24c0,10.4,6.7,19.2,16,22.5V120h-16V96c0-2.1-0.8-4.2-2.3-5.7L160,60.7V46.5
	c9.3-3.3,16-12.1,16-22.5c0-13.2-10.8-24-24-24s-24,10.8-24,24c0,10.4,6.7,19.2,16,22.5V64c0,2.1,0.8,4.2,2.3,5.7L176,99.3V120h-8
	c-2.1,0-4.2,0.8-5.7,2.3l-40,40c-1.5,1.5-2.3,3.5-2.3,5.7v40h-10.5l-22.1-58.8c-1.2-3.1-4.2-5.2-7.5-5.2H46.5
	c-3.3-9.3-12.1-16-22.5-16c-13.2,0-24,10.8-24,24s10.8,24,24,24c10.4,0,19.2-6.7,22.5-16h27.9l18,48H78.5c-3.3-9.3-12.1-16-22.5-16
	c-13.2,0-24,10.8-24,24s10.8,24,24,24c10.4,0,19.2-6.7,22.5-16H120v48H46.5c-3.3-9.3-12.1-16-22.5-16c-13.2,0-24,10.8-24,24
	s10.8,24,24,24c10.4,0,19.2-6.7,22.5-16H120v16H96c-2.1,0-4.2,0.8-5.7,2.3L60.7,336H46.5c-3.3-9.3-12.1-16-22.5-16
	c-13.2,0-24,10.8-24,24s10.8,24,24,24c10.4,0,19.2-6.7,22.5-16H64c2.1,0,4.2-0.8,5.7-2.3L99.3,320H120v8c0,2.1,0.8,4.2,2.3,5.7
	l40,40c1.5,1.5,3.5,2.3,5.7,2.3h40v10.5l-58.8,22.1c-3.1,1.2-5.2,4.2-5.2,7.5v33.5c-9.3,3.3-16,12.1-16,22.5c0,13.2,10.8,24,24,24
	s24-10.8,24-24c0-10.4-6.7-19.2-16-22.5v-27.9l48-18v13.9c-9.3,3.3-16,12.1-16,22.5c0,13.2,10.8,24,24,24s24-10.8,24-24
	c0-10.4-6.7-19.2-16-22.5V376h48v73.5c-9.3,3.3-16,12.1-16,22.5c0,13.2,10.8,24,24,24s24-10.8,24-24c0-10.4-6.7-19.2-16-22.5V376h16
	v24c0,2.1,0.8,4.2,2.3,5.7l29.7,29.7v14.2c-9.3,3.3-16,12.1-16,22.5c0,13.2,10.8,24,24,24s24-10.8,24-24c0-10.4-6.7-19.2-16-22.5
	V432c0-2.1-0.8-4.2-2.3-5.7L320,396.7V376h8c2.1,0,4.2-0.8,5.7-2.3l40-40c1.5-1.5,2.3-3.5,2.3-5.7v-40h10.5l22.1,58.8
	c1.2,3.1,4.2,5.2,7.5,5.2h33.5c3.3,9.3,12.1,16,22.5,16c13.2,0,24-10.8,24-24s-10.8-24-24-24c-10.4,0-19.2,6.7-22.5,16h-27.9l-18-48
	h13.9c3.3,9.3,12.1,16,22.5,16c13.2,0,24-10.8,24-24s-10.8-24-24-24c-10.4,0-19.2,6.7-22.5,16H376V224z M472,208c4.4,0,8,3.6,8,8
	s-3.6,8-8,8s-8-3.6-8-8S467.6,208,472,208z M472,144c4.4,0,8,3.6,8,8s-3.6,8-8,8s-8-3.6-8-8S467.6,144,472,144z M344,16
	c4.4,0,8,3.6,8,8s-3.6,8-8,8s-8-3.6-8-8S339.6,16,344,16z M280,48c4.4,0,8,3.6,8,8s-3.6,8-8,8s-8-3.6-8-8S275.6,48,280,48z M216,16
	c4.4,0,8,3.6,8,8s-3.6,8-8,8s-8-3.6-8-8S211.6,16,216,16z M152,16c4.4,0,8,3.6,8,8s-3.6,8-8,8s-8-3.6-8-8S147.6,16,152,16z M24,160
	c-4.4,0-8-3.6-8-8s3.6-8,8-8s8,3.6,8,8S28.4,160,24,160z M56,224c-4.4,0-8-3.6-8-8s3.6-8,8-8s8,3.6,8,8S60.4,224,56,224z M24,288
	c-4.4,0-8-3.6-8-8s3.6-8,8-8s8,3.6,8,8S28.4,288,24,288z M24,352c-4.4,0-8-3.6-8-8s3.6-8,8-8s8,3.6,8,8S28.4,352,24,352z M152,480
	c-4.4,0-8-3.6-8-8s3.6-8,8-8s8,3.6,8,8S156.4,480,152,480z M216,448c-4.4,0-8-3.6-8-8s3.6-8,8-8s8,3.6,8,8S220.4,448,216,448z
	 M280,480c-4.4,0-8-3.6-8-8s3.6-8,8-8s8,3.6,8,8S284.4,480,280,480z M344,480c-4.4,0-8-3.6-8-8s3.6-8,8-8s8,3.6,8,8
	S348.4,480,344,480z M472,336c4.4,0,8,3.6,8,8s-3.6,8-8,8s-8-3.6-8-8S467.6,336,472,336z M440,272c4.4,0,8,3.6,8,8s-3.6,8-8,8
	s-8-3.6-8-8S435.6,272,440,272z M360,324.7L324.7,360H171.3L136,324.7V171.3l35.3-35.3h153.4l35.3,35.3V324.7z"/>
<path d="M312,152H184c-2.1,0-4.2,0.8-5.7,2.3l-24,24c-1.5,1.5-2.3,3.5-2.3,5.7v128c0,2.1,0.8,4.2,2.3,5.7l24,24
	c1.5,1.5,3.5,2.3,5.7,2.3h128c2.1,0,4.2-0.8,5.7-2.3l24-24c1.5-1.5,2.3-3.5,2.3-5.7V184c0-2.1-0.8-4.2-2.3-5.7l-24-24
	C316.2,152.8,314.1,152,312,152z M328,200h-44.7l-13.7-13.7c-1.5-1.5-3.5-2.3-5.7-2.3h-64v16h60.7l13.7,13.7
	c1.5,1.5,3.5,2.3,5.7,2.3h48v92.7L308.7,328H187.3L168,308.7V296h44.7l13.7,13.7c1.5,1.5,3.5,2.3,5.7,2.3h64v-16h-60.7l-13.7-13.7
	c-1.5-1.5-3.5-2.3-5.7-2.3h-48v-92.7l19.3-19.3h121.4l19.3,19.3V200z"/>
</svg>
