<?xml version="1.0" encoding="utf-8"?>
<!-- Generator: Adobe Illustrator 22.1.0, SVG Export Plug-In . SVG Version: 6.00 Build 0)  -->
<svg version="1.1" id="Capa_1" xmlns="http://www.w3.org/2000/svg" xmlns:xlink="http://www.w3.org/1999/xlink" x="0px" y="0px"
	 viewBox="0 0 512 512" style="enable-background:new 0 0 512 512;" xml:space="preserve" width="62px" fill="#4c35b0">
<g>
	<g>
		<g>
			<path d="M502,418h-7V164c0-26.6-20.8-48.3-47-49.9V62c0-23.2-18.8-42-42-42H106c-23.2,0-42,18.8-42,42v52.1
				c-26.2,1.6-47,23.3-47,49.9v48c0,5.5,4.5,10,10,10s10-4.5,10-10v-48c0-15.5,11.9-28.3,27-29.9V342c0,23.2,18.8,42,42,42h300
				c23.2,0,42-18.8,42-42V134.2c15.1,1.5,27,14.3,27,29.9v254H37V293.8c0-5.5-4.5-10-10-10s-10,4.5-10,10V418h-7
				c-5.5,0-10,4.5-10,10v14c0,27.6,22.4,50,50,50h412c27.6,0,50-22.4,50-50v-14C512,422.5,507.5,418,502,418z M428,342
				c0,12.1-9.9,22-22,22H106c-12.1,0-22-9.9-22-22V112h344V342z M428,92H84V62c0-12.1,9.9-22,22-22h300c12.1,0,22,9.9,22,22V92z
				 M492,442c0,16.5-13.5,30-30,30H50c-16.5,0-30-13.5-30-30v-4h6.8c0.1,0,0.2,0,0.2,0h458c0.1,0,0.2,0,0.2,0h6.8V442z"/>
		</g>
	</g>
	<g>
		<g>
			<path d="M274,445h-36.1c-5.5,0-10,4.5-10,10s4.5,10,10,10H274c5.5,0,10-4.5,10-10S279.5,445,274,445z"/>
		</g>
	</g>
	<g>
		<g>
			<path d="M34.1,244.4c-1.9-1.9-4.4-2.9-7.1-2.9s-5.2,1.1-7.1,2.9s-2.9,4.4-2.9,7.1s1.1,5.2,2.9,7.1c1.9,1.9,4.4,2.9,7.1,2.9
				s5.2-1.1,7.1-2.9c1.9-1.9,2.9-4.4,2.9-7.1S35.9,246.3,34.1,244.4z"/>
		</g>
	</g>
	<g>
		<g>
			<path d="M398,56H230.9c-5.5,0-10,4.5-10,10s4.5,10,10,10H398c5.5,0,10-4.5,10-10S403.6,56,398,56z"/>
		</g>
	</g>
	<g>
		<g>
			<path d="M150.6,58.9c-1.9-1.9-4.4-2.9-7.1-2.9c-2.6,0-5.2,1.1-7.1,2.9c-1.9,1.9-2.9,4.4-2.9,7.1c0,2.6,1.1,5.2,2.9,7.1
				s4.4,2.9,7.1,2.9c2.6,0,5.2-1.1,7.1-2.9c1.9-1.9,2.9-4.4,2.9-7.1S152.5,60.8,150.6,58.9z"/>
		</g>
	</g>
	<g>
		<g>
			<path d="M121,58.9c-1.9-1.9-4.4-2.9-7.1-2.9c-2.6,0-5.2,1.1-7.1,2.9s-2.9,4.4-2.9,7.1c0,2.6,1.1,5.2,2.9,7.1s4.4,2.9,7.1,2.9
				c2.6,0,5.2-1.1,7.1-2.9c1.9-1.9,2.9-4.4,2.9-7.1S122.9,60.8,121,58.9z"/>
		</g>
	</g>
	<g>
		<g>
			<path d="M180.2,58.9c-1.9-1.9-4.4-2.9-7.1-2.9s-5.2,1.1-7.1,2.9c-1.9,1.9-2.9,4.4-2.9,7.1c0,2.6,1.1,5.2,2.9,7.1s4.4,2.9,7.1,2.9
				s5.2-1.1,7.1-2.9c1.9-1.9,2.9-4.4,2.9-7.1S182.1,60.8,180.2,58.9z"/>
		</g>
	</g>
	<g>
		<g>
			<path d="M175.6,187.9l26.7-26.7c3.9-3.9,3.9-10.2,0-14.1c-3.9-3.9-10.2-3.9-14.1,0l-33.7,33.7c-3.9,3.9-3.9,10.2,0,14.1
				l33.7,33.7c2,2,4.5,2.9,7.1,2.9s5.1-1,7.1-2.9c3.9-3.9,3.9-10.2,0-14.1L175.6,187.9z"/>
		</g>
	</g>
	<g>
		<g>
			<path d="M357.6,180.8l-33.7-33.7c-3.9-3.9-10.2-3.9-14.1,0c-3.9,3.9-3.9,10.2,0,14.1l26.7,26.7l-26.7,26.7
				c-3.9,3.9-3.9,10.2,0,14.1c2,2,4.5,2.9,7.1,2.9s5.1-1,7.1-2.9l33.7-33.7C361.5,191.1,361.5,184.7,357.6,180.8z"/>
		</g>
	</g>
	<g>
		<g>
			<path d="M284.9,138.7c-4.8-2.8-10.9-1.2-13.7,3.6l-47.6,81.1c-2.8,4.8-1.2,10.9,3.6,13.7c1.6,0.9,3.3,1.4,5.1,1.4
				c3.4,0,6.8-1.8,8.6-4.9l47.6-81.1C291.2,147.7,289.7,141.5,284.9,138.7z"/>
		</g>
	</g>
	<g>
		<g>
			<path d="M378.5,266H212.2c-5.5,0-10,4.5-10,10s4.5,10,10,10h166.3c5.5,0,10-4.5,10-10S384,266,378.5,266z"/>
		</g>
	</g>
	<g>
		<g>
			<path d="M173.1,266h-49c-5.5,0-10,4.5-10,10s4.5,10,10,10h49c5.5,0,10-4.5,10-10S178.7,266,173.1,266z"/>
		</g>
	</g>
	<g>
		<g>
			<path d="M340.2,314H124.2c-5.5,0-10,4.5-10,10s4.5,10,10,10h216.1c5.5,0,10-4.5,10-10S345.8,314,340.2,314z"/>
		</g>
	</g>
	<g>
		<g>
			<path d="M385.5,316.9c-1.9-1.9-4.4-2.9-7.1-2.9c-2.6,0-5.2,1.1-7.1,2.9c-1.9,1.9-2.9,4.4-2.9,7.1s1.1,5.2,2.9,7.1
				c1.9,1.9,4.4,2.9,7.1,2.9s5.2-1.1,7.1-2.9c1.9-1.9,2.9-4.4,2.9-7.1S387.4,318.8,385.5,316.9z"/>
		</g>
	</g>
</g>
</svg>
